{
    "output_path": "AmpLen_cov_plot",
    "lv1_path": "/mnt/2021_TP_LDT_Lv1_Illumina",
    "sequencer_ID": "AANB02",
    "run_ID": "AANB02_31",
    "Tools": {
        "bedtools": "scripts/bedtools"
    }
}
